\relax 
\providecommand\hyper@newdestlabel[2]{}
\providecommand\HyperFirstAtBeginDocument{\AtBeginDocument}
\HyperFirstAtBeginDocument{\ifx\hyper@anchor\@undefined
\global\let\oldcontentsline\contentsline
\gdef\contentsline#1#2#3#4{\oldcontentsline{#1}{#2}{#3}}
\global\let\oldnewlabel\newlabel
\gdef\newlabel#1#2{\newlabelxx{#1}#2}
\gdef\newlabelxx#1#2#3#4#5#6{\oldnewlabel{#1}{{#2}{#3}}}
\AtEndDocument{\ifx\hyper@anchor\@undefined
\let\contentsline\oldcontentsline
\let\newlabel\oldnewlabel
\fi}
\fi}
\global\let\hyper@last\relax 
\gdef\HyperFirstAtBeginDocument#1{#1}
\providecommand\HyField@AuxAddToFields[1]{}
\providecommand\HyField@AuxAddToCoFields[2]{}
\select@language{english}
\@writefile{toc}{\select@language{english}}
\@writefile{lof}{\select@language{english}}
\@writefile{lot}{\select@language{english}}
\tocstyle@set@width {unum}{toc}{}{39.80653pt}
\tocstyle@set@width {num}{toc}{1}{15.40009pt}
\tocstyle@set@width {skip}{toc}{1}{0.0pt}
\tocstyle@set@width {num}{toc}{2}{39.47598pt}
\tocstyle@set@width {skip}{toc}{2}{15.40009pt}
\tocstyle@set@width {num}{toc}{3}{39.80653pt}
\tocstyle@set@width {skip}{toc}{3}{54.87607pt}
\citation{PBP2}
\@writefile{toc}{\contentsline {section}{\numberline {1}Introduction}{1}{section.2}}
\@writefile{toc}{\contentsline {subsection}{\numberline {1.1}Grasping objects: a multifaceted problem}{1}{subsection.3}}
\@writefile{toc}{\contentsline {subsection}{\numberline {1.2}Description of the subproblem of interest}{1}{subsection.4}}
\@writefile{toc}{\contentsline {subsection}{\numberline {1.3}Sources of failure}{1}{subsection.5}}
\@writefile{toc}{\contentsline {subsection}{\numberline {1.4}Overview of the solution}{2}{subsection.6}}
\@writefile{lof}{\contentsline {figure}{\numberline {1}{\ignorespaces Flow chart of the procedure used to abort the grasping as soon as possible\relax }}{3}{figure.caption.7}}
\providecommand*\caption@xref[2]{\@setref\relax\@undefined{#1}}
\newlabel{fig:wholeprocess}{{1}{3}{Flow chart of the procedure used to abort the grasping as soon as possible\relax }{figure.caption.7}{}}
\citation{DiceGrasp}
\citation{GraspSurvey}
\citation{DataDrivenGrasping}
\citation{PBP2}
\citation{HMMGraspStability}
\citation{TactCharact}
\citation{GraspStab1}
\citation{GraspStab2}
\citation{ControlLoopSensors}
\@writefile{toc}{\contentsline {section}{\numberline {2}Related Work}{4}{section.8}}
\@writefile{toc}{\contentsline {section}{\numberline {3}Hardware description}{6}{section.9}}
\@writefile{toc}{\contentsline {subsection}{\numberline {3.1}Actuated arm}{6}{subsection.10}}
\@writefile{lof}{\contentsline {figure}{\numberline {2}{\ignorespaces The UR5 arm (courtesy of Universal Robots)\relax }}{6}{figure.caption.11}}
\newlabel{fig:ur5}{{2}{6}{The UR5 arm (courtesy of Universal Robots)\relax }{figure.caption.11}{}}
\citation{RobotiQFK}
\@writefile{toc}{\contentsline {subsection}{\numberline {3.2}Gripper}{7}{subsection.12}}
\@writefile{lof}{\contentsline {figure}{\numberline {3}{\ignorespaces The Robotiq S Model gripper (courtesy of Robotiq)\relax }}{7}{figure.caption.13}}
\newlabel{fig:robotiqSmodel}{{3}{7}{The Robotiq S Model gripper (courtesy of Robotiq)\relax }{figure.caption.13}{}}
\@writefile{toc}{\contentsline {subsubsection}{\numberline {3.2.1}Underactuation: a blessing and a curse}{7}{subsubsection.14}}
\newlabel{subs:underact}{{3.2.1}{7}{Underactuation: a blessing and a curse}{subsubsection.14}{}}
\@writefile{toc}{\contentsline {subsection}{\numberline {3.3}Sensing devices}{8}{subsection.15}}
\@writefile{toc}{\contentsline {subsubsection}{\numberline {3.3.1}Vision}{8}{subsubsection.16}}
\@writefile{lof}{\contentsline {figure}{\numberline {4}{\ignorespaces A Kinect device (courtesy of Wikimedia Commons)\relax }}{8}{figure.caption.17}}
\newlabel{fig:kinect}{{4}{8}{A Kinect device (courtesy of Wikimedia Commons)\relax }{figure.caption.17}{}}
\@writefile{toc}{\contentsline {subsubsection}{\numberline {3.3.2}Load cells}{8}{subsubsection.18}}
\@writefile{lof}{\contentsline {figure}{\numberline {5}{\ignorespaces Tactile Sensor Visualiser for all the sensors at once\relax }}{9}{figure.caption.19}}
\newlabel{fig:rsui_global}{{5}{9}{Tactile Sensor Visualiser for all the sensors at once\relax }{figure.caption.19}{}}
\@writefile{lof}{\contentsline {figure}{\numberline {6}{\ignorespaces Tactile Sensor Visualiser interface for one given sensor\relax }}{9}{figure.caption.20}}
\newlabel{fig:rsui_stat}{{6}{9}{Tactile Sensor Visualiser interface for one given sensor\relax }{figure.caption.20}{}}
\@writefile{toc}{\contentsline {subsection}{\numberline {3.4}Mounting}{9}{subsection.21}}
\@writefile{lof}{\contentsline {figure}{\numberline {7}{\ignorespaces Design of the structure and current mounting\relax }}{10}{figure.caption.22}}
\newlabel{fig:mounting}{{7}{10}{Design of the structure and current mounting\relax }{figure.caption.22}{}}
\@writefile{toc}{\contentsline {section}{\numberline {4}Trajectory generation and execution}{11}{section.23}}
\newlabel{sec:approach}{{4}{11}{Trajectory generation and execution}{section.23}{}}
\@writefile{toc}{\contentsline {subsection}{\numberline {4.1}Preliminary concerns}{11}{subsection.24}}
\@writefile{lof}{\contentsline {figure}{\numberline {8}{\ignorespaces Dummy object added to the environment\relax }}{11}{figure.caption.25}}
\newlabel{fig:rviz_plan}{{8}{11}{Dummy object added to the environment\relax }{figure.caption.25}{}}
\citation{EST}
\@writefile{lof}{\contentsline {figure}{\numberline {9}{\ignorespaces Two phases approach\relax }}{12}{figure.caption.26}}
\newlabel{fig:2phasetraj}{{9}{12}{Two phases approach\relax }{figure.caption.26}{}}
\@writefile{toc}{\contentsline {subsubsection}{\numberline {4.1.1}On trajectory generation}{12}{subsubsection.27}}
\newlabel{subs:trajectorygeneration}{{4.1.1}{12}{On trajectory generation}{subsubsection.27}{}}
\@writefile{toc}{\contentsline {subsection}{\numberline {4.2}Execution of the motion plan}{12}{subsection.28}}
\citation{FQI}
\citation{Taxonomy}
\@writefile{toc}{\contentsline {section}{\numberline {5}Grasping}{13}{section.29}}
\newlabel{sec:grasping}{{5}{13}{Grasping}{section.29}{}}
\@writefile{toc}{\contentsline {subsection}{\numberline {5.1}Definition of a successful grasp}{13}{subsection.30}}
\newlabel{subs:successfulgrasp}{{5.1}{13}{Definition of a successful grasp}{subsection.30}{}}
\@writefile{lof}{\contentsline {figure}{\numberline {10}{\ignorespaces Power grasp and precision grasp\relax }}{14}{figure.caption.31}}
\newlabel{fig:grasps_1}{{10}{14}{Power grasp and precision grasp\relax }{figure.caption.31}{}}
\@writefile{lof}{\contentsline {figure}{\numberline {11}{\ignorespaces Unstable grasp and incomplete grasp\relax }}{14}{figure.caption.32}}
\newlabel{fig:grasps_2}{{11}{14}{Unstable grasp and incomplete grasp\relax }{figure.caption.32}{}}
\@writefile{toc}{\contentsline {subsection}{\numberline {5.2}Monitoring the sensors}{14}{subsection.33}}
\@writefile{toc}{\contentsline {subsection}{\numberline {5.3}Formalization of the data that can be acquired}{15}{subsection.34}}
\newlabel{subs:datadef}{{5.3}{15}{Formalization of the data that can be acquired}{subsection.34}{}}
\@writefile{toc}{\contentsline {subsection}{\numberline {5.4}Learning grasps}{15}{subsection.35}}
\@writefile{lof}{\contentsline {figure}{\numberline {12}{\ignorespaces Initial state and final state of a typical experiment\relax }}{16}{figure.caption.36}}
\newlabel{fig:typical-experiment}{{12}{16}{Initial state and final state of a typical experiment\relax }{figure.caption.36}{}}
\@writefile{lof}{\contentsline {figure}{\numberline {13}{\ignorespaces Initial state and final state with labeled outcome of some experiments\relax }}{17}{figure.caption.37}}
\newlabel{fig:soap-experiments}{{13}{17}{Initial state and final state with labeled outcome of some experiments\relax }{figure.caption.37}{}}
\@writefile{lof}{\contentsline {figure}{\numberline {14}{\ignorespaces Tactile and finger values acquired from the experiment whose outcome is shown in Figure \ref  {fig:experiment-dat-photo}\relax }}{18}{figure.caption.38}}
\newlabel{fig:experiment-dat-graphs}{{14}{18}{Tactile and finger values acquired from the experiment whose outcome is shown in Figure \ref {fig:experiment-dat-photo}\relax }{figure.caption.38}{}}
\citation{FQI}
\@writefile{lof}{\contentsline {figure}{\numberline {15}{\ignorespaces Final state of the experiment shown in Figure \ref  {fig:experiment-dat-graphs}, we can see that finger 1 missed the objective\relax }}{19}{figure.caption.39}}
\newlabel{fig:experiment-dat-photo}{{15}{19}{Final state of the experiment shown in Figure \ref {fig:experiment-dat-graphs}, we can see that finger 1 missed the objective\relax }{figure.caption.39}{}}
\@writefile{toc}{\contentsline {subsection}{\numberline {5.5}FQI}{19}{subsection.40}}
\@writefile{loa}{\contentsline {algorithm}{\numberline {1}{\ignorespaces fitted Q iteration\relax }}{20}{algorithm.41}}
\newlabel{alg:fqi-algo}{{1}{20}{fitted Q iteration\relax }{algorithm.41}{}}
\@writefile{toc}{\contentsline {subsubsection}{\numberline {5.5.1}Modelling the system's state for FQI}{20}{subsubsection.42}}
\newlabel{subs:fqi-model}{{5.5.1}{20}{Modelling the system's state for FQI}{subsubsection.42}{}}
\@writefile{toc}{\contentsline {subsubsection}{\numberline {5.5.2}Modelling the actions and the reward system for FQI}{21}{subsubsection.43}}
\@writefile{toc}{\contentsline {subsubsection}{\numberline {5.5.3}Using the data to build the learning set $\mathcal  {F}$ for FQI}{21}{subsubsection.44}}
\@writefile{lof}{\contentsline {figure}{\numberline {16}{\ignorespaces Representation of the transitions added to the set $\mathcal  {F}$ for an experiment\relax }}{22}{figure.caption.45}}
\newlabel{fig:FQI-F-set}{{16}{22}{Representation of the transitions added to the set $\mcal {F}$ for an experiment\relax }{figure.caption.45}{}}
\@writefile{toc}{\contentsline {subsubsection}{\numberline {5.5.4}Usage of the generated $\mathcal  {Q}$ function}{22}{subsubsection.46}}
\newlabel{subsubs:useQ}{{5.5.4}{22}{Usage of the generated $\mcal {Q}$ function}{subsubsection.46}{}}
\@writefile{lof}{\contentsline {figure}{\numberline {17}{\ignorespaces Usage of the decision function through an experiment\relax }}{23}{figure.caption.47}}
\newlabel{fig:max-reward}{{17}{23}{Usage of the decision function through an experiment\relax }{figure.caption.47}{}}
\@writefile{toc}{\contentsline {subsubsection}{\numberline {5.5.5}Artificially adding experimental data}{23}{subsubsection.48}}
\@writefile{lof}{\contentsline {figure}{\numberline {18}{\ignorespaces Example of a mirrored case\relax }}{23}{figure.caption.49}}
\newlabel{fig:mirror-trick}{{18}{23}{Example of a mirrored case\relax }{figure.caption.49}{}}
\citation{ExtraTrees}
\citation{sklearn}
\@writefile{toc}{\contentsline {section}{\numberline {6}Results}{24}{section.50}}
\@writefile{toc}{\contentsline {subsection}{\numberline {6.1}Choices of parameters and algorithms}{24}{subsection.51}}
\@writefile{toc}{\contentsline {subsection}{\numberline {6.2}Model for the cylinder prototype}{25}{subsection.52}}
\@writefile{lof}{\contentsline {figure}{\numberline {19}{\ignorespaces Cylinder allows to grasp from behind\relax }}{25}{figure.caption.53}}
\newlabel{fig:cyl-invisible}{{19}{25}{Cylinder allows to grasp from behind\relax }{figure.caption.53}{}}
\@writefile{toc}{\contentsline {subsubsection}{\numberline {6.2.1}Experiments}{25}{subsubsection.54}}
\@writefile{lof}{\contentsline {figure}{\numberline {20}{\ignorespaces Objects grasped for the training set\relax }}{26}{figure.caption.55}}
\newlabel{fig:grasp-array}{{20}{26}{Objects grasped for the training set\relax }{figure.caption.55}{}}
\@writefile{lof}{\contentsline {figure}{\numberline {21}{\ignorespaces Labeled outcomes per set of experiments\relax }}{27}{figure.caption.56}}
\newlabel{fig:experiments-labels}{{21}{27}{Labeled outcomes per set of experiments\relax }{figure.caption.56}{}}
\@writefile{toc}{\contentsline {subsubsection}{\numberline {6.2.2}Performances of the two models}{27}{subsubsection.57}}
\@writefile{lof}{\contentsline {figure}{\numberline {22}{\ignorespaces Overall charts of the decisions taken by the models\relax }}{27}{figure.caption.58}}
\newlabel{fig:piecharts}{{22}{27}{Overall charts of the decisions taken by the models\relax }{figure.caption.58}{}}
\@writefile{lof}{\contentsline {figure}{\numberline {23}{\ignorespaces True positives detailed for each cross-validation\relax }}{28}{figure.caption.59}}
\newlabel{fig:TP}{{23}{28}{True positives detailed for each cross-validation\relax }{figure.caption.59}{}}
\@writefile{lof}{\contentsline {figure}{\numberline {24}{\ignorespaces True negatives detailed for each cross-validation\relax }}{28}{figure.caption.60}}
\newlabel{fig:TN}{{24}{28}{True negatives detailed for each cross-validation\relax }{figure.caption.60}{}}
\@writefile{lof}{\contentsline {figure}{\numberline {25}{\ignorespaces False positives detailed for each cross-validation\relax }}{28}{figure.caption.61}}
\newlabel{fig:FP}{{25}{28}{False positives detailed for each cross-validation\relax }{figure.caption.61}{}}
\@writefile{lof}{\contentsline {figure}{\numberline {26}{\ignorespaces False negatives detailed for each cross-validation\relax }}{28}{figure.caption.62}}
\newlabel{fig:FN}{{26}{28}{False negatives detailed for each cross-validation\relax }{figure.caption.62}{}}
\@writefile{toc}{\contentsline {subsection}{\numberline {6.3}Attempt at using the box prototype}{29}{subsection.63}}
\@writefile{lof}{\contentsline {figure}{\numberline {27}{\ignorespaces Box protoype with three edges\relax }}{29}{figure.caption.64}}
\newlabel{fig:protorect}{{27}{29}{Box protoype with three edges\relax }{figure.caption.64}{}}
\@writefile{lof}{\contentsline {figure}{\numberline {28}{\ignorespaces Examples of good matches\relax }}{30}{figure.caption.65}}
\newlabel{fig:rect-pbp-gmatches}{{28}{30}{Examples of good matches\relax }{figure.caption.65}{}}
\@writefile{lof}{\contentsline {figure}{\numberline {29}{\ignorespaces Examples of sub-optimal yet successful matches of round objects\relax }}{30}{figure.caption.66}}
\newlabel{fig:rect-pbp-bmatches}{{29}{30}{Examples of sub-optimal yet successful matches of round objects\relax }{figure.caption.66}{}}
\@writefile{toc}{\contentsline {subsection}{\numberline {6.4}Conclusions and Future work}{31}{subsection.67}}
\@writefile{toc}{\contentsline {section}{\numberline {A}Software interface}{32}{section.68}}
\newlabel{annex:soft}{{A}{32}{Software interface}{section.68}{}}
\@writefile{toc}{\contentsline {subsection}{\numberline {A. I}ROS}{32}{subsection.69}}
\@writefile{toc}{\contentsline {subsection}{\numberline {A. II}MoveIt! for the UR5}{32}{subsection.70}}
\citation{SPARSE}
\citation{LBTRRT}
\@writefile{toc}{\contentsline {subsubsection}{\numberline {A. II.1}Quick word about the OMPL}{33}{subsubsection.71}}
\newlabel{subannex:ompl}{{A. II.1}{33}{Quick word about the OMPL}{subsubsection.71}{}}
\@writefile{toc}{\contentsline {subsection}{\numberline {A. III}Robotiq}{33}{subsection.72}}
\@writefile{toc}{\contentsline {subsection}{\numberline {A. IV}Sensors}{33}{subsection.73}}
\@writefile{toc}{\contentsline {subsection}{\numberline {A. V}API}{34}{subsection.74}}
\@writefile{lof}{\contentsline {figure}{\numberline {30}{\ignorespaces Overview of the \texttt  {move\_group} interface (courtesy of the Moveit! wiki)\relax }}{35}{figure.caption.75}}
\newlabel{fig:moveit-overview}{{30}{35}{Overview of the \ttt {move\_group} interface (courtesy of the Moveit! wiki)\relax }{figure.caption.75}{}}
\@writefile{toc}{\contentsline {subsection}{\numberline {A. VI}Implementation details for FQI}{35}{subsection.76}}
\@writefile{toc}{\contentsline {subsection}{\numberline {A. VII}Implementation details for the decision procedure}{35}{subsection.77}}
\@writefile{toc}{\contentsline {section}{\numberline {B}Quaternions}{36}{section.78}}
\newlabel{annex:quat}{{B}{36}{Quaternions}{section.78}{}}
\@writefile{toc}{\contentsline {subsection}{\numberline {B. I}Mathematical description of quaternions}{36}{subsection.79}}
\@writefile{toc}{\contentsline {subsubsection}{\numberline {B. I.1}Complex numbers and 2D transforms}{36}{subsubsection.80}}
\@writefile{lof}{\contentsline {figure}{\numberline {31}{\ignorespaces Illustration of Euler's formula (courtesy of Wikimedia Commons)\relax }}{36}{figure.caption.81}}
\newlabel{fig:Euler_rot}{{31}{36}{Illustration of Euler's formula (courtesy of Wikimedia Commons)\relax }{figure.caption.81}{}}
\@writefile{toc}{\contentsline {subsubsection}{\numberline {B. I.2}Quaternions for 3D transforms}{36}{subsubsection.82}}
\citation{Quaternions-talk}
\@writefile{toc}{\contentsline {subsection}{\numberline {B. II}Implications in 3D geometry (and robotics)}{37}{subsection.83}}
\@writefile{toc}{\contentsline {subsubsection}{\numberline {B. II.1}Representation of poses in space and transformations}{37}{subsubsection.84}}
\@writefile{toc}{\contentsline {section}{\numberline {C}Planners analysis}{38}{section.85}}
\newlabel{annex:plan}{{C}{38}{Planners analysis}{section.85}{}}
\@writefile{lof}{\contentsline {figure}{\numberline {32}{\ignorespaces Different trajectories for the same goal (from two points of view) with the default planner\relax }}{38}{figure.caption.86}}
\newlabel{fig:trajectories}{{32}{38}{Different trajectories for the same goal (from two points of view) with the default planner\relax }{figure.caption.86}{}}
\@writefile{toc}{\contentsline {subsection}{\numberline {C. I}Computation time and success rate}{39}{subsection.87}}
\newlabel{annex:planners-analysis}{{C. I}{39}{Computation time and success rate}{subsection.87}{}}
\@writefile{lot}{\contentsline {table}{\numberline {1}{\ignorespaces Planners statistics\relax }}{39}{table.caption.88}}
\newlabel{tab:planners-analysis}{{1}{39}{Planners statistics\relax }{table.caption.88}{}}
\@writefile{toc}{\contentsline {subsection}{\numberline {C. II}Trajectories analysis}{39}{subsection.89}}
\newlabel{annex:planners-trajs}{{C. II}{39}{Trajectories analysis}{subsection.89}{}}
\@writefile{lof}{\contentsline {figure}{\numberline {33}{\ignorespaces KPIECE and BKPIECE\relax }}{39}{figure.caption.90}}
\newlabel{fig:kpiece-bkpiece}{{33}{39}{KPIECE and BKPIECE\relax }{figure.caption.90}{}}
\@writefile{lof}{\contentsline {figure}{\numberline {34}{\ignorespaces LBKPIECE and RRT\relax }}{40}{figure.caption.91}}
\newlabel{fig:lbkpiece-rrt}{{34}{40}{LBKPIECE and RRT\relax }{figure.caption.91}{}}
\@writefile{lof}{\contentsline {figure}{\numberline {35}{\ignorespaces RRTStar and RRTConnect\relax }}{40}{figure.caption.92}}
\newlabel{fig:rrtstar-rrtconnect}{{35}{40}{RRTStar and RRTConnect\relax }{figure.caption.92}{}}
\citation{RRTConnect}
\citation{PRMStar}
\citation{EST}
\@writefile{lof}{\contentsline {figure}{\numberline {36}{\ignorespaces PRM and PRMStar\relax }}{41}{figure.caption.93}}
\newlabel{fig:prm-prmstar}{{36}{41}{PRM and PRMStar\relax }{figure.caption.93}{}}
\@writefile{lof}{\contentsline {figure}{\numberline {37}{\ignorespaces SBL and EST\relax }}{41}{figure.caption.94}}
\newlabel{fig:sbl-est}{{37}{41}{SBL and EST\relax }{figure.caption.94}{}}
\@writefile{toc}{\contentsline {subsection}{\numberline {C. III}Choosing the planner}{42}{subsection.95}}
\@writefile{lof}{\contentsline {figure}{\numberline {38}{\ignorespaces Comparison of candidate planners with various objectives\relax }}{43}{figure.caption.96}}
\newlabel{fig:trajs}{{38}{43}{Comparison of candidate planners with various objectives\relax }{figure.caption.96}{}}
\bibstyle{plain}
\bibdata{bibliography}
\bibcite{TactCharact}{1}
\bibcite{HMMGraspStability}{2}
\bibcite{GraspSurvey}{3}
\bibcite{DiceGrasp}{4}
\bibcite{FQI}{5}
\bibcite{GraspStab2}{6}
\bibcite{GraspStab1}{7}
\bibcite{EST}{8}
\bibcite{PBP2}{9}
\bibcite{SPARSE}{10}
\bibcite{Taxonomy}{11}
\bibcite{RobotiQFK}{12}
\@writefile{toc}{\contentsline {section}{Bibliography}{44}{section*.97}}
\bibcite{ExtraTrees}{13}
\bibcite{DataDrivenGrasping}{14}
\bibcite{Quaternions-talk}{15}
\bibcite{RRTConnect}{16}
\bibcite{PRMStar}{17}
\bibcite{ControlLoopSensors}{18}
\bibcite{sklearn}{19}
\bibcite{LBTRRT}{20}
\newlabel{LastPage}{{}{45}{}{page.50}{}}
\xdef\lastpage@lastpage{45}
\xdef\lastpage@lastpageHy{50}
