\beamer@endinputifotherversion {3.33pt}
\select@language {english}
\beamer@sectionintoc {2}{\scshape Goal and challenges}{4}{0}{1}
\beamer@sectionintoc {3}{\scshape Results}{21}{0}{2}
\beamer@sectionintoc {4}{\scshape Conclusions}{26}{0}{3}
\beamer@sectionintoc {5}{\scshape Additional Material}{35}{1}{4}
