\relax 
\providecommand\hyper@newdestlabel[2]{}
\providecommand\HyperFirstAtBeginDocument{\AtBeginDocument}
\HyperFirstAtBeginDocument{\ifx\hyper@anchor\@undefined
\global\let\oldcontentsline\contentsline
\gdef\contentsline#1#2#3#4{\oldcontentsline{#1}{#2}{#3}}
\global\let\oldnewlabel\newlabel
\gdef\newlabel#1#2{\newlabelxx{#1}#2}
\gdef\newlabelxx#1#2#3#4#5#6{\oldnewlabel{#1}{{#2}{#3}}}
\AtEndDocument{\ifx\hyper@anchor\@undefined
\let\contentsline\oldcontentsline
\let\newlabel\oldnewlabel
\fi}
\fi}
\global\let\hyper@last\relax 
\gdef\HyperFirstAtBeginDocument#1{#1}
\providecommand\HyField@AuxAddToFields[1]{}
\providecommand\HyField@AuxAddToCoFields[2]{}
\@writefile{toc}{\beamer@endinputifotherversion {3.33pt}}
\@writefile{nav}{\beamer@endinputifotherversion {3.33pt}}
\select@language{english}
\@writefile{toc}{\select@language{english}}
\@writefile{lof}{\select@language{english}}
\@writefile{lot}{\select@language{english}}
\@writefile{nav}{\headcommand {\sectionentry {1}{\scshape  Introduction}{1}{\scshape  Introduction}{0}}}
\@writefile{nav}{\headcommand {\beamer@sectionpages {1}{0}}}
\@writefile{nav}{\headcommand {\beamer@subsectionpages {1}{0}}}
\@writefile{nav}{\headcommand {\slideentry {1}{0}{1}{1/1}{}{0}}}
\@writefile{nav}{\headcommand {\beamer@framepages {1}{1}}}
\@writefile{nav}{\headcommand {\slideentry {1}{0}{2}{2/2}{}{0}}}
\@writefile{nav}{\headcommand {\beamer@framepages {2}{2}}}
\@writefile{nav}{\headcommand {\slideentry {1}{0}{3}{3/3}{}{0}}}
\@writefile{nav}{\headcommand {\beamer@framepages {3}{3}}}
\@writefile{toc}{\beamer@sectionintoc {2}{\scshape  Goal and challenges}{4}{0}{1}}
\@writefile{nav}{\headcommand {\sectionentry {2}{\scshape  Goal and challenges}{4}{\scshape  Goal and challenges}{0}}}
\@writefile{nav}{\headcommand {\beamer@sectionpages {1}{3}}}
\@writefile{nav}{\headcommand {\beamer@subsectionpages {1}{3}}}
\@writefile{nav}{\headcommand {\beamer@subsectionentry {0}{2}{1}{4}{Description of the problem at hand}}\headcommand {\beamer@subsectionpages {4}{3}}}
\@writefile{nav}{\headcommand {\slideentry {2}{1}{1}{4/10}{Description of the problem at hand}{0}}}
\@writefile{nav}{\headcommand {\beamer@framepages {4}{10}}}
\@writefile{nav}{\headcommand {\beamer@subsectionentry {0}{2}{2}{11}{Requirements to assess the quality of the grasp}}\headcommand {\beamer@subsectionpages {4}{10}}}
\@writefile{nav}{\headcommand {\slideentry {2}{2}{1}{11/17}{Requirements to assess the quality of the grasp}{0}}}
\@writefile{nav}{\headcommand {\beamer@framepages {11}{17}}}
\@writefile{nav}{\headcommand {\beamer@subsectionentry {0}{2}{3}{18}{Choice of RL algorithm}}\headcommand {\beamer@subsectionpages {11}{17}}}
\@writefile{nav}{\headcommand {\slideentry {2}{3}{1}{18/18}{Choice of RL algorithm}{0}}}
\@writefile{nav}{\headcommand {\beamer@framepages {18}{18}}}
\newlabel{trans<1>}{{7}{19}{Choice of RL algorithm}{Doc-Start}{}}
\@writefile{snm}{\beamer@slide {trans<1>}{19}}
\newlabel{trans}{{7}{19}{Choice of RL algorithm}{Doc-Start}{}}
\@writefile{snm}{\beamer@slide {trans}{19}}
\@writefile{nav}{\headcommand {\slideentry {2}{3}{2}{19/19}{Choice of RL algorithm}{0}}}
\@writefile{nav}{\headcommand {\beamer@framepages {19}{19}}}
\@writefile{nav}{\headcommand {\slideentry {2}{3}{3}{20/20}{Choice of RL algorithm}{0}}}
\@writefile{nav}{\headcommand {\beamer@framepages {20}{20}}}
\@writefile{toc}{\beamer@sectionintoc {3}{\scshape  Results}{21}{0}{2}}
\@writefile{nav}{\headcommand {\sectionentry {3}{\scshape  Results}{21}{\scshape  Results}{0}}}
\@writefile{nav}{\headcommand {\beamer@sectionpages {4}{20}}}
\@writefile{nav}{\headcommand {\beamer@subsectionpages {18}{20}}}
\@writefile{nav}{\headcommand {\beamer@subsectionentry {0}{3}{1}{21}{Learning process}}\headcommand {\beamer@subsectionpages {21}{20}}}
\@writefile{nav}{\headcommand {\slideentry {3}{1}{1}{21/21}{Learning process}{0}}}
\@writefile{nav}{\headcommand {\beamer@framepages {21}{21}}}
\@writefile{nav}{\headcommand {\slideentry {3}{1}{2}{22/22}{Learning process}{0}}}
\@writefile{nav}{\headcommand {\beamer@framepages {22}{22}}}
\@writefile{nav}{\headcommand {\beamer@subsectionentry {0}{3}{2}{23}{Two different models}}\headcommand {\beamer@subsectionpages {21}{22}}}
\@writefile{nav}{\headcommand {\slideentry {3}{2}{1}{23/23}{Two different models}{0}}}
\@writefile{nav}{\headcommand {\beamer@framepages {23}{23}}}
\@writefile{nav}{\headcommand {\beamer@subsectionentry {0}{3}{3}{24}{Results with contact loss history}}\headcommand {\beamer@subsectionpages {23}{23}}}
\@writefile{nav}{\headcommand {\slideentry {3}{3}{1}{24/24}{Results with contact loss history}{0}}}
\@writefile{nav}{\headcommand {\beamer@framepages {24}{24}}}
\@writefile{nav}{\headcommand {\beamer@subsectionentry {0}{3}{4}{25}{Results without contact loss history}}\headcommand {\beamer@subsectionpages {24}{24}}}
\@writefile{nav}{\headcommand {\slideentry {3}{4}{1}{25/25}{Results without contact loss history}{0}}}
\@writefile{nav}{\headcommand {\beamer@framepages {25}{25}}}
\@writefile{toc}{\beamer@sectionintoc {4}{\scshape  Conclusions}{26}{0}{3}}
\@writefile{nav}{\headcommand {\sectionentry {4}{\scshape  Conclusions}{26}{\scshape  Conclusions}{0}}}
\@writefile{nav}{\headcommand {\beamer@sectionpages {21}{25}}}
\@writefile{nav}{\headcommand {\beamer@subsectionpages {25}{25}}}
\@writefile{nav}{\headcommand {\slideentry {4}{0}{2}{26/26}{}{0}}}
\@writefile{nav}{\headcommand {\beamer@framepages {26}{26}}}
\@writefile{nav}{\headcommand {\slideentry {4}{0}{3}{27/27}{}{0}}}
\@writefile{nav}{\headcommand {\beamer@framepages {27}{27}}}
\@writefile{nav}{\headcommand {\slideentry {4}{0}{4}{28/33}{}{0}}}
\@writefile{nav}{\headcommand {\beamer@framepages {28}{33}}}
\newlabel{end<1>}{{17}{34}{\scshape Conclusions}{Doc-Start}{}}
\@writefile{snm}{\beamer@slide {end<1>}{34}}
\newlabel{end}{{17}{34}{\scshape Conclusions}{Doc-Start}{}}
\@writefile{snm}{\beamer@slide {end}{34}}
\@writefile{nav}{\headcommand {\slideentry {4}{0}{5}{34/34}{}{0}}}
\@writefile{nav}{\headcommand {\beamer@framepages {34}{34}}}
\@writefile{nav}{\headcommand {\partentry {Appendix}{1}}}
\@writefile{nav}{\headcommand {\beamer@partpages {1}{34}}}
\@writefile{nav}{\headcommand {\beamer@sectionpages {26}{34}}}
\@writefile{nav}{\headcommand {\beamer@subsectionpages {26}{34}}}
\@writefile{nav}{\headcommand {\beamer@appendixpages {35}}}
\@writefile{toc}{\beamer@sectionintoc {5}{\scshape  Additional Material}{35}{1}{4}}
\@writefile{nav}{\headcommand {\sectionentry {5}{\scshape  Additional Material}{35}{\scshape  Additional Material}{1}}}
\@writefile{nav}{\headcommand {\beamer@sectionpages {35}{34}}}
\@writefile{nav}{\headcommand {\beamer@subsectionpages {35}{34}}}
\newlabel{term<1>}{{18}{35}{\scshape Additional Material}{Doc-Start}{}}
\@writefile{snm}{\beamer@slide {term<1>}{35}}
\newlabel{term}{{18}{35}{\scshape Additional Material}{Doc-Start}{}}
\@writefile{snm}{\beamer@slide {term}{35}}
\@writefile{nav}{\headcommand {\slideentry {5}{0}{6}{35/35}{}{1}}}
\@writefile{nav}{\headcommand {\beamer@framepages {35}{35}}}
\newlabel{reward<1>}{{19}{36}{\scshape Additional Material}{Doc-Start}{}}
\@writefile{snm}{\beamer@slide {reward<1>}{36}}
\newlabel{reward}{{19}{36}{\scshape Additional Material}{Doc-Start}{}}
\@writefile{snm}{\beamer@slide {reward}{36}}
\newlabel{reward<2>}{{19}{37}{\scshape Additional Material}{Doc-Start}{}}
\@writefile{snm}{\beamer@slide {reward<2>}{37}}
\newlabel{reward<3>}{{19}{38}{\scshape Additional Material}{Doc-Start}{}}
\@writefile{snm}{\beamer@slide {reward<3>}{38}}
\newlabel{reward<4>}{{19}{39}{\scshape Additional Material}{Doc-Start}{}}
\@writefile{snm}{\beamer@slide {reward<4>}{39}}
\newlabel{reward<5>}{{19}{40}{\scshape Additional Material}{Doc-Start}{}}
\@writefile{snm}{\beamer@slide {reward<5>}{40}}
\newlabel{reward<6>}{{19}{41}{\scshape Additional Material}{Doc-Start}{}}
\@writefile{snm}{\beamer@slide {reward<6>}{41}}
\@writefile{nav}{\headcommand {\slideentry {5}{0}{7}{36/41}{}{1}}}
\@writefile{nav}{\headcommand {\beamer@framepages {36}{41}}}
\newlabel{state<1>}{{20}{42}{\scshape Additional Material}{Doc-Start}{}}
\@writefile{snm}{\beamer@slide {state<1>}{42}}
\newlabel{state}{{20}{42}{\scshape Additional Material}{Doc-Start}{}}
\@writefile{snm}{\beamer@slide {state}{42}}
\newlabel{state<2>}{{20}{43}{\scshape Additional Material}{Doc-Start}{}}
\@writefile{snm}{\beamer@slide {state<2>}{43}}
\newlabel{state<3>}{{20}{44}{\scshape Additional Material}{Doc-Start}{}}
\@writefile{snm}{\beamer@slide {state<3>}{44}}
\newlabel{state<4>}{{20}{45}{\scshape Additional Material}{Doc-Start}{}}
\@writefile{snm}{\beamer@slide {state<4>}{45}}
\@writefile{nav}{\headcommand {\slideentry {5}{0}{8}{42/45}{}{1}}}
\@writefile{nav}{\headcommand {\beamer@framepages {42}{45}}}
\@writefile{nav}{\headcommand {\beamer@partpages {35}{45}}}
\@writefile{nav}{\headcommand {\beamer@subsectionpages {35}{45}}}
\@writefile{nav}{\headcommand {\beamer@sectionpages {35}{45}}}
\@writefile{nav}{\headcommand {\beamer@documentpages {45}}}
\@writefile{nav}{\headcommand {\def \inserttotalframenumber {20}}}
